^E:\FACULTATE\TEMA2EXTRAACC\SRC\TEMA2EXTRAACC\SOURCE.CPP|E:\FACULTATE\TEMA2EXTRAACC\SRC\TEMA2EXTRAACC\TRANSITION.CPP|E:\FACULTATE\TEMA2EXTRAACC\SRC\TEMA2EXTRAACC\TURINGMACHINE.CPP
E:\FACULTATE\TEMA2EXTRAACC\SRC\TEMA2EXTRAACC\DEBUG\VC141.PDB
E:\FACULTATE\TEMA2EXTRAACC\SRC\TEMA2EXTRAACC\DEBUG\VC141.IDB
E:\FACULTATE\TEMA2EXTRAACC\SRC\TEMA2EXTRAACC\DEBUG\TURINGMACHINE.OBJ
E:\FACULTATE\TEMA2EXTRAACC\SRC\TEMA2EXTRAACC\DEBUG\TRANSITION.OBJ
E:\FACULTATE\TEMA2EXTRAACC\SRC\TEMA2EXTRAACC\DEBUG\SOURCE.OBJ
^E:\FACULTATE\TEMA2EXTRAACC\SRC\TEMA2EXTRAACC\CONVERTER2TURING.CPP|E:\FACULTATE\TEMA2EXTRAACC\SRC\TEMA2EXTRAACC\SOURCE.CPP
E:\FACULTATE\TEMA2EXTRAACC\SRC\TEMA2EXTRAACC\DEBUG\VC141.PDB
E:\FACULTATE\TEMA2EXTRAACC\SRC\TEMA2EXTRAACC\DEBUG\VC141.IDB
E:\FACULTATE\TEMA2EXTRAACC\SRC\TEMA2EXTRAACC\DEBUG\SOURCE.OBJ
E:\FACULTATE\TEMA2EXTRAACC\SRC\TEMA2EXTRAACC\DEBUG\CONVERTER2TURING.OBJ
^E:\FACULTATE\TEMA2EXTRAACC\SRC\TEMA2EXTRAACC\CREATETURINGMACHINE.CPP|E:\FACULTATE\TEMA2EXTRAACC\SRC\TEMA2EXTRAACC\GENERATESTRING.CPP|E:\FACULTATE\TEMA2EXTRAACC\SRC\TEMA2EXTRAACC\SOURCE.CPP|E:\FACULTATE\TEMA2EXTRAACC\SRC\TEMA2EXTRAACC\TRANSITION.CPP
E:\FACULTATE\TEMA2EXTRAACC\SRC\TEMA2EXTRAACC\DEBUG\VC141.PDB
E:\FACULTATE\TEMA2EXTRAACC\SRC\TEMA2EXTRAACC\DEBUG\VC141.IDB
E:\FACULTATE\TEMA2EXTRAACC\SRC\TEMA2EXTRAACC\DEBUG\TRANSITION.OBJ
E:\FACULTATE\TEMA2EXTRAACC\SRC\TEMA2EXTRAACC\DEBUG\SOURCE.OBJ
E:\FACULTATE\TEMA2EXTRAACC\SRC\TEMA2EXTRAACC\DEBUG\GENERATESTRING.OBJ
E:\FACULTATE\TEMA2EXTRAACC\SRC\TEMA2EXTRAACC\DEBUG\CREATETURINGMACHINE.OBJ
^E:\FACULTATE\TEMA2EXTRAACC\SRC\TEMA2EXTRAACC\CONVERTER2TURING.CPP|E:\FACULTATE\TEMA2EXTRAACC\SRC\TEMA2EXTRAACC\CREATETURINGMACHINE.CPP|E:\FACULTATE\TEMA2EXTRAACC\SRC\TEMA2EXTRAACC\SOURCE.CPP
E:\FACULTATE\TEMA2EXTRAACC\SRC\TEMA2EXTRAACC\DEBUG\VC141.PDB
E:\FACULTATE\TEMA2EXTRAACC\SRC\TEMA2EXTRAACC\DEBUG\VC141.IDB
E:\FACULTATE\TEMA2EXTRAACC\SRC\TEMA2EXTRAACC\DEBUG\SOURCE.OBJ
E:\FACULTATE\TEMA2EXTRAACC\SRC\TEMA2EXTRAACC\DEBUG\CREATETURINGMACHINE.OBJ
E:\FACULTATE\TEMA2EXTRAACC\SRC\TEMA2EXTRAACC\DEBUG\CONVERTER2TURING.OBJ
^E:\FACULTATE\TEMA2EXTRAACC\SRC\TEMA2EXTRAACC\CONVERTER2TURING.CPP|E:\FACULTATE\TEMA2EXTRAACC\SRC\TEMA2EXTRAACC\CREATETURINGMACHINE.CPP|E:\FACULTATE\TEMA2EXTRAACC\SRC\TEMA2EXTRAACC\GENERATESTRING.CPP|E:\FACULTATE\TEMA2EXTRAACC\SRC\TEMA2EXTRAACC\SOURCE.CPP|E:\FACULTATE\TEMA2EXTRAACC\SRC\TEMA2EXTRAACC\TRANSITION.CPP|E:\FACULTATE\TEMA2EXTRAACC\SRC\TEMA2EXTRAACC\TURINGMACHINE.CPP
E:\FACULTATE\TEMA2EXTRAACC\SRC\TEMA2EXTRAACC\DEBUG\VC141.PDB
E:\FACULTATE\TEMA2EXTRAACC\SRC\TEMA2EXTRAACC\DEBUG\VC141.IDB
E:\FACULTATE\TEMA2EXTRAACC\SRC\TEMA2EXTRAACC\DEBUG\TURINGMACHINE.OBJ
E:\FACULTATE\TEMA2EXTRAACC\SRC\TEMA2EXTRAACC\DEBUG\TRANSITION.OBJ
E:\FACULTATE\TEMA2EXTRAACC\SRC\TEMA2EXTRAACC\DEBUG\SOURCE.OBJ
E:\FACULTATE\TEMA2EXTRAACC\SRC\TEMA2EXTRAACC\DEBUG\GENERATESTRING.OBJ
E:\FACULTATE\TEMA2EXTRAACC\SRC\TEMA2EXTRAACC\DEBUG\CREATETURINGMACHINE.OBJ
E:\FACULTATE\TEMA2EXTRAACC\SRC\TEMA2EXTRAACC\DEBUG\CONVERTER2TURING.OBJ
^E:\FACULTATE\TEMA2EXTRAACC\SRC\TEMA2EXTRAACC\CONVERTER2TURING.CPP
E:\FACULTATE\TEMA2EXTRAACC\SRC\TEMA2EXTRAACC\DEBUG\VC141.PDB
^E:\FACULTATE\TEMA2EXTRAACC\SRC\TEMA2EXTRAACC\BASE2CONVERTOR.CPP|E:\FACULTATE\TEMA2EXTRAACC\SRC\TEMA2EXTRAACC\CREATETURINGMACHINE.CPP|E:\FACULTATE\TEMA2EXTRAACC\SRC\TEMA2EXTRAACC\GENERATESTRING.CPP|E:\FACULTATE\TEMA2EXTRAACC\SRC\TEMA2EXTRAACC\SOURCE.CPP|E:\FACULTATE\TEMA2EXTRAACC\SRC\TEMA2EXTRAACC\TRANSITION.CPP|E:\FACULTATE\TEMA2EXTRAACC\SRC\TEMA2EXTRAACC\TURINGMACHINE.CPP
E:\FACULTATE\TEMA2EXTRAACC\SRC\TEMA2EXTRAACC\DEBUG\VC141.PDB
E:\FACULTATE\TEMA2EXTRAACC\SRC\TEMA2EXTRAACC\DEBUG\VC141.IDB
E:\FACULTATE\TEMA2EXTRAACC\SRC\TEMA2EXTRAACC\DEBUG\TURINGMACHINE.OBJ
E:\FACULTATE\TEMA2EXTRAACC\SRC\TEMA2EXTRAACC\DEBUG\TRANSITION.OBJ
E:\FACULTATE\TEMA2EXTRAACC\SRC\TEMA2EXTRAACC\DEBUG\SOURCE.OBJ
E:\FACULTATE\TEMA2EXTRAACC\SRC\TEMA2EXTRAACC\DEBUG\GENERATESTRING.OBJ
E:\FACULTATE\TEMA2EXTRAACC\SRC\TEMA2EXTRAACC\DEBUG\CREATETURINGMACHINE.OBJ
E:\FACULTATE\TEMA2EXTRAACC\SRC\TEMA2EXTRAACC\DEBUG\BASE2CONVERTOR.OBJ
^E:\FACULTATE\TEMA2EXTRAACC\SRC\TEMA2EXTRAACC\CREATETURINGMACHINE.CPP|E:\FACULTATE\TEMA2EXTRAACC\SRC\TEMA2EXTRAACC\SOURCE.CPP
E:\FACULTATE\TEMA2EXTRAACC\SRC\TEMA2EXTRAACC\DEBUG\VC141.PDB
E:\FACULTATE\TEMA2EXTRAACC\SRC\TEMA2EXTRAACC\DEBUG\VC141.IDB
E:\FACULTATE\TEMA2EXTRAACC\SRC\TEMA2EXTRAACC\DEBUG\SOURCE.OBJ
E:\FACULTATE\TEMA2EXTRAACC\SRC\TEMA2EXTRAACC\DEBUG\CREATETURINGMACHINE.OBJ
^E:\FACULTATE\TEMA2EXTRAACC\SRC\TEMA2EXTRAACC\CREATETURINGMACHINE.CPP|E:\FACULTATE\TEMA2EXTRAACC\SRC\TEMA2EXTRAACC\GENERATESTRING.CPP|E:\FACULTATE\TEMA2EXTRAACC\SRC\TEMA2EXTRAACC\SOURCE.CPP|E:\FACULTATE\TEMA2EXTRAACC\SRC\TEMA2EXTRAACC\TURINGMACHINE.CPP
E:\FACULTATE\TEMA2EXTRAACC\SRC\TEMA2EXTRAACC\DEBUG\VC141.PDB
E:\FACULTATE\TEMA2EXTRAACC\SRC\TEMA2EXTRAACC\DEBUG\VC141.IDB
E:\FACULTATE\TEMA2EXTRAACC\SRC\TEMA2EXTRAACC\DEBUG\TURINGMACHINE.OBJ
E:\FACULTATE\TEMA2EXTRAACC\SRC\TEMA2EXTRAACC\DEBUG\SOURCE.OBJ
E:\FACULTATE\TEMA2EXTRAACC\SRC\TEMA2EXTRAACC\DEBUG\GENERATESTRING.OBJ
E:\FACULTATE\TEMA2EXTRAACC\SRC\TEMA2EXTRAACC\DEBUG\CREATETURINGMACHINE.OBJ
^E:\FACULTATE\TEMA2EXTRAACC\SRC\TEMA2EXTRAACC\BASE2CONVERTOR.CPP|E:\FACULTATE\TEMA2EXTRAACC\SRC\TEMA2EXTRAACC\CREATETURINGMACHINE.CPP|E:\FACULTATE\TEMA2EXTRAACC\SRC\TEMA2EXTRAACC\SOURCE.CPP
E:\FACULTATE\TEMA2EXTRAACC\SRC\TEMA2EXTRAACC\DEBUG\VC141.PDB
E:\FACULTATE\TEMA2EXTRAACC\SRC\TEMA2EXTRAACC\DEBUG\VC141.IDB
E:\FACULTATE\TEMA2EXTRAACC\SRC\TEMA2EXTRAACC\DEBUG\SOURCE.OBJ
E:\FACULTATE\TEMA2EXTRAACC\SRC\TEMA2EXTRAACC\DEBUG\CREATETURINGMACHINE.OBJ
E:\FACULTATE\TEMA2EXTRAACC\SRC\TEMA2EXTRAACC\DEBUG\BASE2CONVERTOR.OBJ
^E:\FACULTATE\TEMA2EXTRAACC\SRC\TEMA2EXTRAACC\BASE2CONVERTOR.CPP
E:\FACULTATE\TEMA2EXTRAACC\SRC\TEMA2EXTRAACC\DEBUG\VC141.PDB
^E:\FACULTATE\TEMA2EXTRAACC\SRC\TEMA2EXTRAACC\CREATETURINGMACHINE.CPP|E:\FACULTATE\TEMA2EXTRAACC\SRC\TEMA2EXTRAACC\TURINGMACHINE.CPP
E:\FACULTATE\TEMA2EXTRAACC\SRC\TEMA2EXTRAACC\DEBUG\VC141.PDB
E:\FACULTATE\TEMA2EXTRAACC\SRC\TEMA2EXTRAACC\DEBUG\VC141.IDB
E:\FACULTATE\TEMA2EXTRAACC\SRC\TEMA2EXTRAACC\DEBUG\TURINGMACHINE.OBJ
E:\FACULTATE\TEMA2EXTRAACC\SRC\TEMA2EXTRAACC\DEBUG\CREATETURINGMACHINE.OBJ
^E:\FACULTATE\TEMA2EXTRAACC\SRC\TEMA2EXTRAACC\CREATETURINGMACHINE.CPP|E:\FACULTATE\TEMA2EXTRAACC\SRC\TEMA2EXTRAACC\GENERATESTRING.CPP|E:\FACULTATE\TEMA2EXTRAACC\SRC\TEMA2EXTRAACC\SOURCE.CPP|E:\FACULTATE\TEMA2EXTRAACC\SRC\TEMA2EXTRAACC\TRANSITION.CPP|E:\FACULTATE\TEMA2EXTRAACC\SRC\TEMA2EXTRAACC\TURINGMACHINE.CPP
E:\FACULTATE\TEMA2EXTRAACC\SRC\TEMA2EXTRAACC\DEBUG\VC141.PDB
E:\FACULTATE\TEMA2EXTRAACC\SRC\TEMA2EXTRAACC\DEBUG\VC141.IDB
E:\FACULTATE\TEMA2EXTRAACC\SRC\TEMA2EXTRAACC\DEBUG\TURINGMACHINE.OBJ
E:\FACULTATE\TEMA2EXTRAACC\SRC\TEMA2EXTRAACC\DEBUG\TRANSITION.OBJ
E:\FACULTATE\TEMA2EXTRAACC\SRC\TEMA2EXTRAACC\DEBUG\SOURCE.OBJ
E:\FACULTATE\TEMA2EXTRAACC\SRC\TEMA2EXTRAACC\DEBUG\GENERATESTRING.OBJ
E:\FACULTATE\TEMA2EXTRAACC\SRC\TEMA2EXTRAACC\DEBUG\CREATETURINGMACHINE.OBJ
^E:\FACULTATE\TEMA2EXTRAACC\SRC\TEMA2EXTRAACC\TRANSITION.CPP
E:\FACULTATE\TEMA2EXTRAACC\SRC\TEMA2EXTRAACC\DEBUG\VC141.PDB
^E:\FACULTATE\TEMA2EXTRAACC\SRC\TEMA2EXTRAACC\BASE10CONVERTER.CPP|E:\FACULTATE\TEMA2EXTRAACC\SRC\TEMA2EXTRAACC\CREATETURINGMACHINE.CPP|E:\FACULTATE\TEMA2EXTRAACC\SRC\TEMA2EXTRAACC\GENERATESTRING.CPP|E:\FACULTATE\TEMA2EXTRAACC\SRC\TEMA2EXTRAACC\SOURCE.CPP|E:\FACULTATE\TEMA2EXTRAACC\SRC\TEMA2EXTRAACC\TURINGMACHINE.CPP
E:\FACULTATE\TEMA2EXTRAACC\SRC\TEMA2EXTRAACC\DEBUG\VC141.PDB
E:\FACULTATE\TEMA2EXTRAACC\SRC\TEMA2EXTRAACC\DEBUG\VC141.IDB
E:\FACULTATE\TEMA2EXTRAACC\SRC\TEMA2EXTRAACC\DEBUG\GENERATESTRING.OBJ
E:\FACULTATE\TEMA2EXTRAACC\SRC\TEMA2EXTRAACC\DEBUG\CREATETURINGMACHINE.OBJ
E:\FACULTATE\TEMA2EXTRAACC\SRC\TEMA2EXTRAACC\DEBUG\BASE10CONVERTER.OBJ
^E:\FACULTATE\TEMA2EXTRAACC\SRC\TEMA2EXTRAACC\CREATETURINGMACHINE.CPP
E:\FACULTATE\TEMA2EXTRAACC\SRC\TEMA2EXTRAACC\DEBUG\CREATETURINGMACHINE.OBJ
^E:\FACULTATE\TEMA2EXTRAACC\SRC\TEMA2EXTRAACC\GENERATESTRING.CPP
E:\FACULTATE\TEMA2EXTRAACC\SRC\TEMA2EXTRAACC\DEBUG\GENERATESTRING.OBJ
^E:\FACULTATE\TEMA2EXTRAACC\SRC\TEMA2EXTRAACC\SOURCE.CPP|E:\FACULTATE\TEMA2EXTRAACC\SRC\TEMA2EXTRAACC\TURINGMACHINE.CPP
E:\FACULTATE\TEMA2EXTRAACC\SRC\TEMA2EXTRAACC\DEBUG\VC141.PDB
E:\FACULTATE\TEMA2EXTRAACC\SRC\TEMA2EXTRAACC\DEBUG\VC141.IDB
E:\FACULTATE\TEMA2EXTRAACC\SRC\TEMA2EXTRAACC\DEBUG\TURINGMACHINE.OBJ
E:\FACULTATE\TEMA2EXTRAACC\SRC\TEMA2EXTRAACC\DEBUG\SOURCE.OBJ
^E:\FACULTATE\TEMA2EXTRAACC\SRC\TEMA2EXTRAACC\BASE10CONVERTER.CPP|E:\FACULTATE\TEMA2EXTRAACC\SRC\TEMA2EXTRAACC\SOURCE.CPP|E:\FACULTATE\TEMA2EXTRAACC\SRC\TEMA2EXTRAACC\TURINGMACHINE.CPP
E:\FACULTATE\TEMA2EXTRAACC\SRC\TEMA2EXTRAACC\DEBUG\VC141.PDB
E:\FACULTATE\TEMA2EXTRAACC\SRC\TEMA2EXTRAACC\DEBUG\VC141.IDB
E:\FACULTATE\TEMA2EXTRAACC\SRC\TEMA2EXTRAACC\DEBUG\TURINGMACHINE.OBJ
E:\FACULTATE\TEMA2EXTRAACC\SRC\TEMA2EXTRAACC\DEBUG\SOURCE.OBJ
E:\FACULTATE\TEMA2EXTRAACC\SRC\TEMA2EXTRAACC\DEBUG\BASE10CONVERTER.OBJ
^E:\FACULTATE\TEMA2EXTRAACC\SRC\TEMA2EXTRAACC\BASE10CONVERTER.CPP
E:\FACULTATE\TEMA2EXTRAACC\SRC\TEMA2EXTRAACC\DEBUG\VC141.PDB
^E:\FACULTATE\TEMA2EXTRAACC\SRC\TEMA2EXTRAACC\SOURCE.CPP
E:\FACULTATE\TEMA2EXTRAACC\SRC\TEMA2EXTRAACC\DEBUG\VC141.PDB
^E:\FACULTATE\TEMA2EXTRAACC\SRC\TEMA2EXTRAACC\TURINGMACHINE.CPP
E:\FACULTATE\TEMA2EXTRAACC\SRC\TEMA2EXTRAACC\DEBUG\VC141.PDB
