^E:\FACULTATE\TEMA2EXTRAACC\SRC\TEMA2EXTRAACC\DEBUG\BASE10CONVERTER.OBJ|E:\FACULTATE\TEMA2EXTRAACC\SRC\TEMA2EXTRAACC\DEBUG\BASE2CONVERTOR.OBJ|E:\FACULTATE\TEMA2EXTRAACC\SRC\TEMA2EXTRAACC\DEBUG\CREATETURINGMACHINE.OBJ|E:\FACULTATE\TEMA2EXTRAACC\SRC\TEMA2EXTRAACC\DEBUG\GENERATESTRING.OBJ|E:\FACULTATE\TEMA2EXTRAACC\SRC\TEMA2EXTRAACC\DEBUG\SOURCE.OBJ|E:\FACULTATE\TEMA2EXTRAACC\SRC\TEMA2EXTRAACC\DEBUG\TRANSITION.OBJ|E:\FACULTATE\TEMA2EXTRAACC\SRC\TEMA2EXTRAACC\DEBUG\TURINGMACHINE.OBJ
C:\PROGRAM FILES (X86)\WINDOWS KITS\10\LIB\10.0.17763.0\UM\X86\KERNEL32.LIB
C:\PROGRAM FILES (X86)\WINDOWS KITS\10\LIB\10.0.17763.0\UM\X86\USER32.LIB
C:\PROGRAM FILES (X86)\WINDOWS KITS\10\LIB\10.0.17763.0\UM\X86\GDI32.LIB
C:\PROGRAM FILES (X86)\WINDOWS KITS\10\LIB\10.0.17763.0\UM\X86\WINSPOOL.LIB
C:\PROGRAM FILES (X86)\WINDOWS KITS\10\LIB\10.0.17763.0\UM\X86\COMDLG32.LIB
C:\PROGRAM FILES (X86)\WINDOWS KITS\10\LIB\10.0.17763.0\UM\X86\ADVAPI32.LIB
C:\PROGRAM FILES (X86)\WINDOWS KITS\10\LIB\10.0.17763.0\UM\X86\SHELL32.LIB
C:\PROGRAM FILES (X86)\WINDOWS KITS\10\LIB\10.0.17763.0\UM\X86\OLE32.LIB
C:\PROGRAM FILES (X86)\WINDOWS KITS\10\LIB\10.0.17763.0\UM\X86\OLEAUT32.LIB
C:\PROGRAM FILES (X86)\WINDOWS KITS\10\LIB\10.0.17763.0\UM\X86\UUID.LIB
C:\PROGRAM FILES (X86)\WINDOWS KITS\10\LIB\10.0.17763.0\UM\X86\ODBC32.LIB
C:\PROGRAM FILES (X86)\WINDOWS KITS\10\LIB\10.0.17763.0\UM\X86\ODBCCP32.LIB
C:\USERS\MIHAI TEODOR\VCPKG\INSTALLED\X86-WINDOWS\DEBUG\LIB\BOOST_ATOMIC-VC140-MT-GD.LIB
C:\USERS\MIHAI TEODOR\VCPKG\INSTALLED\X86-WINDOWS\DEBUG\LIB\BOOST_CHRONO-VC140-MT-GD.LIB
C:\USERS\MIHAI TEODOR\VCPKG\INSTALLED\X86-WINDOWS\DEBUG\LIB\BOOST_CONTAINER-VC140-MT-GD.LIB
C:\USERS\MIHAI TEODOR\VCPKG\INSTALLED\X86-WINDOWS\DEBUG\LIB\BOOST_CONTEXT-VC140-MT-GD.LIB
C:\USERS\MIHAI TEODOR\VCPKG\INSTALLED\X86-WINDOWS\DEBUG\LIB\BOOST_COROUTINE-VC140-MT-GD.LIB
C:\USERS\MIHAI TEODOR\VCPKG\INSTALLED\X86-WINDOWS\DEBUG\LIB\BOOST_DATE_TIME-VC140-MT-GD.LIB
C:\USERS\MIHAI TEODOR\VCPKG\INSTALLED\X86-WINDOWS\DEBUG\LIB\BOOST_EXCEPTION-VC140-MT-GD.LIB
C:\USERS\MIHAI TEODOR\VCPKG\INSTALLED\X86-WINDOWS\DEBUG\LIB\BOOST_MATH_C99-VC140-MT-GD.LIB
C:\USERS\MIHAI TEODOR\VCPKG\INSTALLED\X86-WINDOWS\DEBUG\LIB\BOOST_MATH_C99F-VC140-MT-GD.LIB
C:\USERS\MIHAI TEODOR\VCPKG\INSTALLED\X86-WINDOWS\DEBUG\LIB\BOOST_MATH_C99L-VC140-MT-GD.LIB
C:\USERS\MIHAI TEODOR\VCPKG\INSTALLED\X86-WINDOWS\DEBUG\LIB\BOOST_MATH_TR1-VC140-MT-GD.LIB
C:\USERS\MIHAI TEODOR\VCPKG\INSTALLED\X86-WINDOWS\DEBUG\LIB\BOOST_MATH_TR1F-VC140-MT-GD.LIB
C:\USERS\MIHAI TEODOR\VCPKG\INSTALLED\X86-WINDOWS\DEBUG\LIB\BOOST_MATH_TR1L-VC140-MT-GD.LIB
C:\USERS\MIHAI TEODOR\VCPKG\INSTALLED\X86-WINDOWS\DEBUG\LIB\BOOST_REGEX-VC140-MT-GD.LIB
C:\USERS\MIHAI TEODOR\VCPKG\INSTALLED\X86-WINDOWS\DEBUG\LIB\BOOST_SYSTEM-VC140-MT-GD.LIB
C:\USERS\MIHAI TEODOR\VCPKG\INSTALLED\X86-WINDOWS\DEBUG\LIB\BOOST_THREAD-VC140-MT-GD.LIB
C:\USERS\MIHAI TEODOR\VCPKG\INSTALLED\X86-WINDOWS\DEBUG\LIB\BROTLICOMMON.LIB
C:\USERS\MIHAI TEODOR\VCPKG\INSTALLED\X86-WINDOWS\DEBUG\LIB\BROTLIDEC.LIB
C:\USERS\MIHAI TEODOR\VCPKG\INSTALLED\X86-WINDOWS\DEBUG\LIB\BROTLIENC.LIB
C:\USERS\MIHAI TEODOR\VCPKG\INSTALLED\X86-WINDOWS\DEBUG\LIB\CPPREST_2_10D.LIB
C:\USERS\MIHAI TEODOR\VCPKG\INSTALLED\X86-WINDOWS\DEBUG\LIB\LIBCURL.LIB
C:\USERS\MIHAI TEODOR\VCPKG\INSTALLED\X86-WINDOWS\DEBUG\LIB\LIBEAY32.LIB
C:\USERS\MIHAI TEODOR\VCPKG\INSTALLED\X86-WINDOWS\DEBUG\LIB\SDL2D.LIB
C:\USERS\MIHAI TEODOR\VCPKG\INSTALLED\X86-WINDOWS\DEBUG\LIB\SSLEAY32.LIB
C:\USERS\MIHAI TEODOR\VCPKG\INSTALLED\X86-WINDOWS\DEBUG\LIB\ZLIBD.LIB
E:\FACULTATE\TEMA2EXTRAACC\SRC\TEMA2EXTRAACC\DEBUG\BASE10CONVERTER.OBJ
E:\FACULTATE\TEMA2EXTRAACC\SRC\TEMA2EXTRAACC\DEBUG\BASE2CONVERTOR.OBJ
E:\FACULTATE\TEMA2EXTRAACC\SRC\TEMA2EXTRAACC\DEBUG\CREATETURINGMACHINE.OBJ
E:\FACULTATE\TEMA2EXTRAACC\SRC\TEMA2EXTRAACC\DEBUG\GENERATESTRING.OBJ
E:\FACULTATE\TEMA2EXTRAACC\SRC\TEMA2EXTRAACC\DEBUG\SOURCE.OBJ
E:\FACULTATE\TEMA2EXTRAACC\SRC\TEMA2EXTRAACC\DEBUG\TRANSITION.OBJ
E:\FACULTATE\TEMA2EXTRAACC\SRC\TEMA2EXTRAACC\DEBUG\TURINGMACHINE.OBJ
C:\WINDOWS\SYSTEM32\TZRES.DLL
C:\WINDOWS\GLOBALIZATION\SORTING\SORTDEFAULT.NLS
C:\PROGRAM FILES (X86)\MICROSOFT VISUAL STUDIO\2017\COMMUNITY\VC\TOOLS\MSVC\14.16.27023\LIB\X86\MSVCPRTD.LIB
C:\PROGRAM FILES (X86)\MICROSOFT VISUAL STUDIO\2017\COMMUNITY\VC\TOOLS\MSVC\14.16.27023\LIB\X86\MSVCRTD.LIB
C:\PROGRAM FILES (X86)\MICROSOFT VISUAL STUDIO\2017\COMMUNITY\VC\TOOLS\MSVC\14.16.27023\LIB\X86\OLDNAMES.LIB
C:\PROGRAM FILES (X86)\MICROSOFT VISUAL STUDIO\2017\COMMUNITY\VC\TOOLS\MSVC\14.16.27023\LIB\X86\VCRUNTIMED.LIB
C:\PROGRAM FILES (X86)\WINDOWS KITS\10\LIB\10.0.17763.0\UCRT\X86\UCRTD.LIB
